{
  "Bahamut": [
    "0918",
    "0919",
    "1016",
    "1018",
    "1019",
    "1115",
    "1116",
    "1117",
    "1118",
    "1120",
    "1214",
    "1216",
    "1218",
    "1313",
    "1314",
    "1315",
    "1316",
    "1318",
    "1319",
    "1412",
    "1415",
    "1416",
    "1512",
    "1513",
    "1514",
    "1515",
    "1516",
    "1612",
    "1613",
    "1614",
    "1615",
    "1711",
    "1713",
    "1811",
    "1812",
    "1813",
    "1911",
    "1912",
    "1913",
    "2011",
    "2012",
    "2013",
    "2111",
    "2114",
    "2209",
    "2210",
    "2211",
    "2212",
    "2213",
    "2310",
    "2312",
    "2411",
    "2512",
    "2611"
  ],
  "Cojiu": [
    "2921",
    "3019"
  ],
  "Elram": [
    "2516",
    "2616",
    "2816"
  ],
  "Hesa": [
    "1408"
  ],
  "Imperium": [
    "0111",
    "0115",
    "0212",
    "0214",
    "0312",
    "0412"
  ],
  "Jumei": [
    "0106",
    "0107",
    "0306",
    "0307",
    "0405",
    "0406",
    "0407",
    "0506",
    "0507",
    "0606"
  ],
  "Laue": [
    "0824",
    "0825",
    "0826",
    "0924",
    "0926",
    "1024",
    "1026",
    "1127"
  ],
  "Lufhoibe": [
    "1029",
    "1030",
    "1129",
    "1131",
    "1229",
    "1230"
  ],
  "Roeci": [
    "2203"
  ],
  "Sanaco": [
    "2507",
    "2508"
  ],
  "Selti": [
    "2724",
    "2726",
    "2825",
    "2924",
    "2925",
    "2926",
    "2927",
    "3025"
  ],
  "Zefle": [
    "1423",
    "1426",
    "1427",
    "1428",
    "1523",
    "1526",
    "1527",
    "1528",
    "1529",
    "1530",
    "1531",
    "1623",
    "1625",
    "1626",
    "1627",
    "1628",
    "1728",
    "1730",
    "1731",
    "1828",
    "1829"
  ],
  "Zucai": [
    "3001",
    "3004",
    "3005",
    "3101",
    "3102"
  ]
}
