Name,Subsector,Hex,Upp,Gas Giants,Bases,Trade Codes,Factions,Endangered,Travel Code,Allegiance
Allewing,8,3220,A150610-D,1,R T,De Ht Ni Po,43,,,
Apgar,5,0112,C774522-8,2,S,Ag Ni,58 44 B4,,,Imperium
Asavastate,1,0303,EAA6500-7,0,,Fl Ni,911 88 86,checked,Amber,
Bacon,7,1920,C310765-D,1,R S,Ht Na,65 27 65,,,
Badeku,2,1610,E330355-9,2,,De Lo Ni Po,88 74,,,
Banuedji,5,0411,B556544-6,3,R S T,Ag Ni,63 55,,,
Baveu,16,2637,B9DA431-9,2,T,Fl Ni Wa,98 B9 65,,,
Bawa,7,2115,C7447BF-5,1,R,Ag Lt,54,,,
Beglaeziadlea,3,1709,E8615AB-5,1,,Lt Ni,36 89,,,
Bernstein,3,2204,C53266B-7,1,,Na Ni Po,97 96,,,Roeci
Bipe,4,2608,C20078A-6,1,R,Na Va,411 76 76,checked,,Sanaco
Bipi,2,1602,B552344-A,3,T,Lo Ni Po,88 56,,,
Borodin,2,1104,B500523-C,1,S T,Ht Ni Va,76,,,
Botticelli,11,2121,C222ACA-B,1,S,Hi In Na Po,66 97 38,,,
Bowie,9,0630,D437647-3,2,,Lt Ni,96,checked,,
Brown,4,2902,A84787B-A,2,R S T,,B7 97,,,Zucai
Buodhe,11,2026,X420202-7,0,,De Lo Ni Po,64,,,
Buste,6,1015,X683100-3,1,,Lo Lt Ni,69,,,
Buvi,10,0925,B853000-A,3,T,Ba Lo Ni Po,910 96 93,,,Laue
Cabunaflu,4,2602,X577314-0,1,,Lo Lt Ni,65,checked,,Roeci
Cadotu,6,1217,C87A000-8,2,S,Ba Lo Ni Wa,63 96 65,,,Bahamut
Caevanoe,14,1336,C56047A-9,2,R S,De Ni,510 87 98,,,
Cagiwa,7,2113,D366A63-9,1,S,Hi,66,,,Bahamut
Camus,11,1925,E310423-9,0,,Ni,98 78,,,
Cashe,5,0117,E748833-6,0,,,45 29 74,,,
Ceha,7,2415,B10078B-A,0,S T,Na Va,C8 28 75,,,Elram
Ceigi,7,1816,X610343-3,2,,Lo Lt Ni,82 29,checked,,
Ceiwuwoe,9,0226,C223754-8,1,S,Na Po,93,,,
Ceticru,8,2919,C468332-7,2,,Lo Ni,87 89 68,,,Cojiu
Ceuwo,16,2840,C89378B-4,2,,Lt,38,,,
Chacrousau,5,0118,X244669-4,1,,Ag Lt Ni,A4,,,
Chadofhe,4,3206,E520569-9,1,,De Ni Po,88,,,
Chantrelle,4,0413,D664654-6,0,S,Ag Ni Ri,,,,Imperium
Chargaff,7,1919,C575366-9,0,S,Lo Ni,37 78,,,
Chobiu,2,1508,E73377A-4,1,,Lt Na Po,86 48 38,checked,,Hesa
Ciatu,16,3134,E000212-B,1,,As Lo Ni Va,49 78,,,
Ciefa,4,3202,D985200-4,2,S,Lo Lt Ni,99 77 A5,,,Zucai
Coigile,1,0205,B100773-B,1,N R T,Na Va,78 49,,,Jumei
Cojiu,8,3020,A7C2957-F,1,N R T,Fl Hi Ht,76 86,,,Cojiu
Commonum,5,0714,D100255-C,0,S,Ht Lo Ni Va,78,,,Idiju
Cozuoqi,7,2112,C332440-7,1,,Ni Po,64 48 77,,,Bahamut
Crefupaxi,2,1510,D466301-5,1,S,Lo Lt Ni,B11 77,,,
Cujeipa,11,2225,C88699A-A,0,,Ga Hi,911 B8 79,,,
Culaneo,9,0724,D320465-A,1,S,De Ni Po,86 65,,,Laue
Curie,2,1509,X353622-0,2,,Lt Ni Po,88,checked,,Hesa
Dacio,8,2513,D675102-4,1,S,Lo Lt Ni,911 96 412,,,Bahamut
Dagice,7,1914,C634565-8,0,S,Ni,66 37,,,Bahamut
Dagoestea,11,2027,A5368B9-D,1,R T,Ht,45,,,
Dagojua,8,2819,D69A630-5,1,S,Lt Ni Wa,812 78 86,,,Cojiu
Dali,8,2815,B59A7BE-7,0,N T,Wa,76,,,Elram
Dano,7,2311,C7B0867-C,0,,De Ht,48,,,Bahamut
Daru,13,0240,C576541-9,2,,Ag Ni,B8,,,
Degas,4,3207,E78856B-8,0,,Ag Ni,98 57 43,,,
Delacroix,6,1311,X553022-0,1,,Lo Lt Ni Po,88 A7 95,,,
Desuiro,2,1308,C675556-9,2,S,Ag Ni,37 54 C8,,,Hesa
Dhasocaje,11,2330,A1108CE-F,1,R S T,Ht Na,910 87 66,,,
Dhobusru,4,2704,B544545-8,1,T,Ag Ni,87,,,
Dibi,5,0519,E200778-8,1,,Na Va,75,,,
Digreliu,3,2407,B57756A-A,1,S T,Ag Ni,911 C8,,,Sanaco
Dioxasi,4,3103,B540555-9,0,N T,De Ni Po,811 59,,,Zucai
Divo,12,2730,B697778-7,1,T,Ag,611,,,
Dlegei,5,0215,B685611-A,3,S T,Ag Ga Ni,66 88 52,,,Imperium
Documu,2,1008,C69A622-8,3,,Ni Wa,B9 B6,,,
Domosia,6,1413,D263557-8,3,S,Ni,89 75 66,,,Bahamut
Dopiu,2,1203,D552010-3,2,,Lo Lt Ni Po,67,,,
Dostoyevsky,2,1103,E756266-7,2,,Ga Lo Ni,510 86,,,
Dotefhu,8,3017,B8CA411-D,1,T,Fl Ht Ni Wa,55 88,,,
Doyle,3,2010,C544000-6,3,S,Ba Lo Ni,B12 94 78,,,Bahamut
Draimua,2,1004,C4237AE-5,1,,Lt Na Po,87 85 59,,,
Draukicra,10,1629,A344AEF-D,1,N T,Hi Ht In,810,,,Zefle
Drekoukuawi,7,2320,D100444-8,2,S,Ni Va,73 54,,,
Droche,2,1403,C522736-5,1,,Lt Na Po,56 49,,,
Drotsu,10,1126,C400467-B,0,,Ni Va,59,,,Laue
Ducasali,11,2124,C657578-6,0,S,Ag Ga Ni,64 97,,,
Duna,12,2728,D340751-4,1,,De Lt Po,79,,,
Dylan,15,2333,B677640-6,1,S T,Ag Ni,89,,,
Elram,8,2715,A558A9C-B,0,N T,Hi,84 56 49,,,Elram
Empedocles,3,1805,D44456A-A,0,S,Ag Ni,610,,,
Factosite IX,4,2503,B699003-A,1,T,Lo Ni,72 A10,,,Roeci
Faulkner,5,0616,C552233-4,1,,Lo Lt Ni Po,511 72,,,
Fauré,13,0835,C848745-3,1,S,Ag Lt,65 76 66,,,
Fejo,11,2128,E983455-3,2,,Lt Ni,68 48 B3,,,
Fexi,9,0323,E475200-5,0,,Lo Lt Ni,56,,,
Fhekeste,15,2238,D200334-9,2,S,Lo Ni Va,511,,,
Fhema,7,1917,C200666-8,1,S,Na Ni Va,96,,,
Fhesewu,4,2702,E110552-C,2,,Ht Ni,46 88 A7,,,Roeci
Fire,8,2818,X554001-1,1,,Lo Lt Ni,54,,,Cojiu
Fise,1,0502,D6A7400-4,2,S,Fl Lt Ni,A7,checked,Amber,
Flucu,2,1204,D434478-4,2,S,Lt Ni,66,checked,,
Fluibeflixoe,4,3205,B100300-F,1,N R S T,Ht Lo Ni Va,89,,,
Fluta,1,0508,D333336-7,1,,Lo Ni Po,211 76,,,Jumei
Fogle,8,2716,E9A1678-3,1,,Fl Lt Ni,97,checked,,Elram
Foka,10,1624,C651544-8,1,R S,Ni Po,77 54,,,Zefle
Fortredor,11,1822,C867840-9,1,R S,Ga Ri,78 94 86,,,
Fralo,6,1012,B566833-8,1,S T,,711 A3 96,,,
Freud,7,2413,D77A220-8,3,S,Lo Ni Wa,B11,,,Bahamut
Fudjedi,1,0209,D100126-6,3,S,Lo Ni Va,58,checked,,Imperium
Fute,6,1114,D533320-4,1,,Lo Lt Ni Po,78,checked,,
Futijufu,3,1801,C15067B-9,3,,De Ni Po,99,,,
Gaiman,4,3107,D542230-3,0,,Lo Lt Ni Po,411 A7,,,
Gakligovuo,7,2317,D668788-5,1,,Ag Lt Ri,A4 B6 98,,,
Gazu,5,0213,B778420-8,1,N T,Ni,910,,,Imperium
Gemae,4,2901,D220233-A,2,,De Lo Ni Po,69,,,Zucai
Geumi,13,0334,E876200-6,1,,Lo Ni,C9 84 89,,,
Giega,6,1317,E547648-5,3,,Ag Lt Ni,A8 48 98,,,Bahamut
Giqifa,5,0716,D110562-D,1,S,Ht Ni,95,,,
Gisavai,4,3201,D43557B-7,1,,Ni,66 A6,,,Zucai
Gliovei,13,0631,D377400-9,1,S,Ni,84,,,
Glirie,1,0302,B210576-C,2,T,Ht Ni,73 87,,,
Goihebi,3,2110,B430A86-D,2,N T,De Hi Ht Na Po,C8 89 44,,,Bahamut
Golu,14,1239,E857422-6,2,,Ga Ni,45 67,,,
Goodall,3,2406,B784564-9,2,T,Ag Ni,67 78,,,Sanaco
Gopu,2,1502,X761445-0,2,,Lt Ni,58,checked,,
Grieg,10,1226,D300203-7,2,,Lo Ni Va,A7 74,checked,,Laue
Gueqo,10,1422,B14088D-B,2,N R S T,De Po,312 56,,,Zefle
Guhuo,6,1119,BA658AE-A,3,N S T,,68 49,,,Bahamut
Hadiea,14,1333,D732222-3,1,,Lo Lt Ni Po,B7,checked,Red,
Hazaqo,6,1616,B885320-7,2,T,Ga Lo Ni,65 77,,Amber,
Heridui,4,3003,B7A6AC9-E,2,T,Fl Hi Ht,58 68,,,Zucai
Hesa,2,1506,BA93555-A,1,N S T,Ni,83 410,,,Hesa
Higlafliu,7,2217,C7B3677-6,1,S,Fl Ni,89,checked,,
Hockney,8,2714,C510454-B,3,R S,Ni,88 82 68,,,Elram
Hominoformica,2,1003,E697974-7,0,,Hi In,84 67,,,
Hosi,3,2109,B000664-F,1,T,As Ht Na Ni Va,88 A5 810,,,Bahamut
Huifodi,5,0211,D425776-8,3,,,88 B5 57,,,Imperium
Huku,10,1430,B534557-C,1,N R T,Ht Ni,48 67 59,,,Zefle
Hupladjuo,7,2016,E46A875-5,1,,Lt Ri Wa,68 98,,,
Hustie,3,2001,D779001-6,0,S,Lo Ni,C12 B4 C10,,,
Hutton,9,0123,E45157B-4,2,,Lt Ni Po,96,,,
Huwiaxeu,5,0119,C889241-5,1,R T,Lo Lt Ni,77,,,
Hypertheno,9,0326,B9998BC-A,3,T,,410,,,
Jaifikra,1,0604,D400565-7,0,,Ni Va,89 94 86,checked,,Jumei
Jaijopacua,5,0512,C220998-D,2,S,De Hi Ht In Na Po,77,,,
Jata,6,1611,E4676AC-3,2,,Ag Lt Ni,18,,,Bahamut
Jelio,8,2917,B6408BA-C,1,R T,De Ht Po,48 77,,,
Johns,14,1138,A674583-C,2,T,Ag Ht Ni,57 66,,,
Joslivine,1,0504,A21098B-E,0,T,Hi Ht In Na,78 A7,,,Jumei
Jouloage,9,0429,CADA865-E,0,,Fl Ht Wa,67 C5,,,
Joxugose,4,2904,C120442-8,2,S,De Ni Po,64 58,,,Zucai
Jutal,13,0436,C5219BA-7,0,R,Hi In Na Po,84 69,,,
Jutuo,2,1402,C110467-C,2,,Ht Ni,711,,,
Juwu,2,1005,C9B277A-4,2,S,Fl Lt,711 A9,checked,Amber,
Kacoe,10,1525,A555898-8,1,N T,,52,,,Zefle
Kaku,3,1803,D5516B8-6,1,,Ni Po,79 66,,,
Kalao,3,1903,C386448-7,3,,Ni,910 76,,,
Kamae,4,2610,B422696-7,1,T,Na Ni Po,87 75 65,,,Bahamut
Keuf'idiju,5,0713,B665138-8,1,N S T,Ga Lo Ni,77 98 28,,,Idiju
Kezi,3,2201,C4446AA-5,1,R,Ag Lt Ni,67 39,,,
Kicejo,8,2614,E626662-5,1,,Lt Ni,82 910 64,,,Elram
Kidriko,5,0217,C9C2531-7,3,S T,Fl Ni,76,checked,,
Kijo,3,2410,C485556-7,2,S T,Ag Ni,74 99 75,,,Bahamut
Kile,12,2721,D000000-7,1,,As Ba Lo Ni Va,67 47 48,checked,Red,
Kistau,1,0809,E368300-6,3,,Lo Ni,711,,,
Klee,1,0102,C10079A-9,1,,Na Va,B11,,,
Kleilo,2,0908,E864124-2,1,,Lo Lt Ni,87,,,
Klieve,9,0830,D533231-3,2,S,Lo Lt Ni Po,87 610,checked,,
Klifhu,3,1810,E410642-6,2,,Na Ni,37 511 62,checked,,
Kokoqe,7,1712,B457546-A,3,N T,Ag Ni,82 85 A5,,,Bahamut
Koniede,8,2515,C747100-A,0,R S,Lo Ni,D7 B5,,,Elram
Kuacoe,3,2206,C324558-C,3,T,Ht Ni,57,,,
Kubo,16,3132,D77A232-6,2,,Lo Ni Wa,97 24 411,,,
Kuve,3,1701,D353501-9,1,S,Ni Po,512 D3 86,,,
Labo,1,0706,E020531-7,3,,De Ni Po,88 98,,,Jumei
Lakelau,5,0113,D986788-3,1,,Ag Lt Ri,B7,,,Imperium
Laokouma,6,1414,D747752-6,1,S,Ag,612 27,,,Bahamut
Laozobao,13,0733,C6848CB-8,3,,,49 311,,,
Laplace,4,2601,D330344-9,1,,De Lo Ni Po,95,,,Roeci
Lato,3,2305,C576730-5,1,R,Ag Lt,99 910,,,Roeci
Laue,9,0823,D420755-6,1,S,De Na Po,710 83 B8,,,Laue
Lawo,1,0505,D223132-4,1,S,Lo Lt Ni Po,76 86,checked,,Jumei
Laxexo,9,0121,B226866-C,3,N T,Ht,27 28,,,Imperium
Leasluko,11,1923,D244996-4,2,,Hi In Lt,511 38,,,
Leclerc,1,0305,A6528DD-9,0,R T,Po,33 47,,,Jumei
Leslea,1,0710,C300314-9,0,S,Lo Ni Va,76 65 84,,,
Letu,6,1215,D331544-8,1,S,Ni Po,98 78,,,Bahamut
Lewis,2,1105,A6598AB-B,0,R T,,65 46,,,
Lifoke,15,1938,X642101-2,2,,Lo Lt Ni Po,94 38 D12,checked,,
Lipruzie,12,2629,D689220-5,3,,Lo Lt Ni,611 96 56,,,
Loaniceki,7,1714,E78A257-7,2,,Lo Ni Wa,88 B9,,,Bahamut
Loja,2,1206,E365154-9,2,,Lo Ni,68 88 96,,,
Lorenz,1,0805,X000340-3,1,,As Lo Lt Ni Va,88 A6 48,checked,,
Lufhoibe,10,1130,A785967-F,3,N R S T,Ga Hi Ht,47 67,,,Lufhoibe
Luideulokao,2,1201,B130445-C,3,T,De Ht Ni Po,38,,,
Luplai,2,1310,C330975-C,1,,De Hi Ht Na Po,83 B5,,,
Lutuso,1,0308,B4567AC-B,1,T,Ag,59,,,Jumei
Mafhaenu,5,0717,C3209AB-B,2,T,De Hi In Na Po,86 55,,,
Manet,9,0725,E100252-A,0,,Lo Ni Va,67 88,,,Laue
Marley,8,2920,X532211-4,1,,Lo Lt Ni Po,77 711,checked,,Cojiu
Martin,2,1501,D51057C-4,1,,Lt Ni,89 56 59,checked,,
Megi,1,0105,E6B2334-8,1,,Fl Lo Ni,53 47,checked,,Jumei
Mesmer,2,0906,D545449-6,1,S,Ni,37,,,Jumei
Miaklio,11,2422,B698133-6,2,T,Lo Ni,47,,,
Miqaflu,4,3209,CAC2578-6,0,R S,Fl Ni,79 A4 47,checked,,
Mocraqia,10,1630,D497422-6,1,,Ni,711 32 611,,,Zefle
Mondrian,1,0704,X633368-1,3,,Lo Lt Ni Po,65 C8 98,checked,,
Mone,1,0203,D421400-7,0,S,Ni Po,74,,,
Mozart,4,2506,C773265-6,1,S,Lo Ni,62 32 B12,,,
Munch,3,2303,CA86554-5,2,,Ag Lt Ni,92 77 611,,,Roeci
Musa,15,2340,B432300-C,1,S T,Ht Lo Ni Po,811 75,,,
Mutarozu,1,0408,C4339A9-8,2,,Hi Na Po,76 68 56,,,Jumei
Nabokov,9,0322,D2007B9-5,1,S,Lt Na Va,84,checked,,
Negiqu,9,0129,A9B298A-C,1,R S T,Fl Hi Ht,35 77 73,,,
Neigho,8,3113,B554786-7,2,N S T,Ag,27 53 C9,,,
Neptohawk,1,0801,C699898-7,2,T,,58 45 610,,,
Nievajo,2,0907,E246563-5,1,,Ag Lt Ni,99,,,Jumei
Nightingale,5,0314,X240101-3,0,,De Lo Lt Ni Po,87 86 53,,,Imperium
Noaxeo,6,1517,D446520-5,1,S,Ag Lt Ni,B5 48 87,,Amber,
Nokuotu,11,1830,C883446-4,0,T,Lt Ni,C6 75,,,Zefle
Nosti,8,3011,D330235-6,1,,De Lo Ni Po,98,,,
Nuezoe,1,0210,E552798-2,1,,Lt Po,89,,,Imperium
Nuvoige,5,0415,D640200-8,3,S,De Lo Ni Po,97 A10 B10,,Red,
Nuvu,8,2814,D8C1788-5,0,S,Fl Lt,75 77 C10,checked,,Elram
Oates,13,0437,D748579-2,2,,Ag Lt Ni,A4,checked,,
Padlo,2,1006,B400478-D,1,T,Ht Ni Va,89 C10 69,,,Jumei
Pebo,4,2708,B543562-9,1,N S T,Ni Po,87,,,Sanaco
Pefi,1,0810,D997542-3,3,S,Ag Lt Ni,,,,
Pehex Q,4,2810,C8A6400-8,2,,Fl Ni,87 74,,Amber,
Pemo,3,2003,D8A2000-4,0,,Ba Fl Lo Lt Ni,A6 65,checked,Amber,
Pinopro,3,1806,D500A97-A,3,,Hi In Na Va,78,,,
Placo,2,1109,C000511-8,1,,As Ni Va,95 811 58,,,
Plarco Decimam,5,0313,EAC6323-5,1,,Fl Lo Lt Ni,34,checked,,Imperium
Plath,2,1507,D448211-4,1,S,Lo Lt Ni,72 76 A10,,,Hesa
Pleokra,12,2823,DA88745-2,1,,Ag Lt Ri,87 96 78,,,Selti
Pobaokro,4,2903,E9E8001-7,1,,Fl Lo Ni,A5 A11,,,Zucai
Pollock,16,2740,C222305-B,1,,Lo Ni Po,D4 A8,,,
Praghidiu,15,1940,D558244-4,3,,Lo Lt Ni,77 B5 39,,,
Praso,8,3217,X97847A-1,2,,Lt Ni,B5 96,checked,,
Presley,1,0806,C59A651-A,2,,Ni Wa,79 95,,,Jumei
Primamoto Nu,9,0524,C632744-9,0,R S,Na Po,910 65,,,
Proaslequ,4,2607,E422500-6,3,,Ni Po,710 911 B9,,,Sanaco
Prokofiev,13,0134,A225656-A,1,N T,Ni,57 76 B2,,,
Propewi,4,3104,D000557-A,1,S,As Ni Va,99,,,Zucai
Proust,1,0708,E765433-7,2,,Ga Ni,A3 99,,,
Prufo,9,0325,D974400-8,1,S,Ni,93,,,
Prujo,1,0204,C574433-7,1,,Ni,910 65,,,Jumei
Pruogleo,1,0206,C341355-A,1,S,Lo Ni Po,610 79 410,,,Jumei
Putuge,4,3002,C8C4689-8,1,S,Fl Ni,97 69 34,checked,,Zucai
Pyromonic,1,0404,E221214-4,3,,Lo Lt Ni Po,910,checked,,Jumei
Qabuhieweo,2,1407,E558413-6,3,,Ni,59,,,Hesa
Qedewa,7,1715,E68A620-5,1,,Lt Ni Wa,39 A9,,,Bahamut
Qemie,11,2028,D842212-4,1,,Lo Lt Ni Po,712 76 73,,,
Qiafio,11,2222,C310553-D,3,,Ht Ni,53 A2 98,,,
Qinui,4,2808,C510545-8,3,S,Ni,36,,,Sanaco
Qiofija,13,0337,C130756-B,1,R S T,De Na Po,711,,,
Qiuru,8,2912,C200200-B,1,,Lo Ni Va,910,,,
Qixepe,15,2232,X569236-0,3,,Lo Lt Ni,67,checked,,
Qizho,6,1213,C9AA841-8,1,R S,Fl Wa,88 43,,,Bahamut
Qugle,7,1720,X200268-7,2,,Lo Ni Va,B6 79 512,checked,,
Quto,3,2007,X542335-2,1,,Lo Lt Ni Po,89 84,checked,,
Rabe,3,1702,B520986-C,1,S T,Te Hi Ht In Na Po,89 611 711,,,
Rafli,1,0605,B597869-8,2,T,,810,,,Jumei
Ramo,4,2509,D682788-6,2,,Ri,912 73 84,,,Sanaco
Raru,1,0309,B100221-F,3,S T,Ht Lo Ni Va,97 69 54,,,
Rembrandt,4,2906,D678789-6,1,S,Ag,A6,,,Zucai
Renoir,16,2734,A67A784-E,0,N S T,Ht Wa,95 A10,,,
Rimsky-Korsakov,6,1219,E777210-2,2,,Lo Lt Ni,57 611,checked,,Bahamut
Riruflo,9,0225,E545657-5,2,,Ag Lt Ni,84,,,
Rivera,3,1908,C226000-8,3,,Ba Lo Ni,87 A8,,,
Riwiflai,12,2826,A110527-C,1,N T,Ht Ni,97 74 54,,,Selti
Roeci,4,2502,B456788-8,2,N T,Ag,96,,,Roeci
Rothko,5,0816,E65A212-7,1,,Lo Ni Wa,B9 83,,,
Rufe,6,0917,B443643-6,2,S T,Ni Po,63,,,Bahamut
Ruifaifa,9,0425,D310000-7,1,S,Ba Lo Ni,69 84,checked,,
Sagrau,6,0911,E699569-7,2,,Ni,76 C11,,,
Sanaco,3,2408,B336747-C,0,N S T,Ht,72,,,Sanaco
Saraoqua,14,1636,D80A544-7,1,S,Ni Wa,54 C6,,,
Savouqu,10,1429,B5775AA-B,0,S T,Ag Ni,44 87 59,,,Zefle
Sefi,16,2639,C576320-8,3,,Lo Ni,69 A11 43,,,
Sesrieji,3,2304,B8C5342-9,1,N T,Fl Lo Ni,55,checked,,Roeci
Sliega,1,0207,C545634-8,1,,Ag Ni,A8 C4 B8,,,Jumei
Slouhi,2,1404,C323345-7,2,S,Lo Ni Po,710 A5,,,
Sluvexue,12,3026,C5109A5-8,1,S T,Hi In Na,64 77,,,Selti
Stahao,12,3229,C68A553-9,1,T,Ni Wa,77,,,
Stimeu,2,1202,C410412-8,2,R,Ni,59 76,,,
Stistoeti,2,1002,B400300-F,0,T,Ht Lo Ni Va,C5 710,,,
Stoipue,4,2604,E222400-7,1,,Ni Po,36 45,,,
Stravinsky,3,1906,D400559-7,1,S,Ni Va,A7 45,checked,,
Stupi,10,1027,B886310-6,1,N S T,Ga Lo Ni,66,,,Laue
Suaru,10,0927,D120321-9,1,S,De Lo Ni Po,711,,,Laue
Sufhoa,6,1617,B5A96AB-A,1,S T,Fl Ni,25 57 57,,Red,
Sugece,8,2717,C338351-A,1,,Lo Ni,C11 89 78,,,Elram
Sugitso,5,0114,D66A001-8,2,,Lo Ni Wa,77 B8 84,,,Imperium
Suxedlo,12,2627,E666413-2,2,,Ga Lt Ni,56 B7 36,,,
Tamawi,13,0336,D687200-6,3,,Ga Lo Ni,A9 B6 53,,,
Tapriajue,8,2820,C410959-E,1,,Hi Ht In Na,84 88 79,,,Cojiu
Tchaikovsky,5,0813,E656831-4,1,,Ga Lt,98,,,Idiju
Tehi,5,0319,D8B0648-6,1,,De Ni,42 711,checked,,
Teko,7,2412,B45699A-A,2,R S T,Hi,79,,,Bahamut
Teqou,3,2404,C66778A-7,1,R S T,Ag Ga Ri,68 76,,,Roeci
Tidu,3,1909,D47A110-A,2,,Lo Ni Wa,710 48,,,
Tihocrou,2,1010,B310200-A,3,S T,Lo Ni,A11,,,
Toexoika,5,0611,C957998-9,3,S T,Hi,A9 55,,,
Topaxu,15,2035,B7568B8-8,1,N T,Ga,94 55 B4,,,
Tuecu,7,2119,X4326A9-4,2,,Lt Na Ni Po,25 69 77,checked,,
Tuji,2,1306,D100463-8,2,S,Ni Va,A4 67 811,,,
Tupi,4,3007,B3688B7-A,1,T,,56 94,,,
Twain,14,1137,E77A444-5,2,,Lt Ni Wa,66 28 57,,,
Vade,2,1302,D468410-8,1,S,Ni,A4 47 46,,,
Vaosu,7,1814,E610125-8,1,,Lo Ni,94,,,Bahamut
Vedieju,13,0637,B300845-9,1,R T,Na Va,55 64 94,,,
Vefri,3,2403,B410242-D,1,T,Ht Lo Ni,B5,,,Roeci
Velocissey,2,1601,D576522-5,0,S,Ag Lt Ni,710 511 89,,,
Verne,6,1111,C265553-8,2,S,Ag Ni,B7 93,,,
Vexide Xi,4,2605,C34469A-4,2,R S,Ag Lt Ni,38,,,
Vini,10,1424,C577479-5,1,,Lt Ni,86,,,Zefle
Vomu,14,1136,E686200-3,1,,Ga Lo Lt Ni,48 75 49,,,
Vuariko,11,2122,C200521-9,0,S,Ni Va,76 45 78,,,
Vudju,7,2313,B223355-A,2,R T,Lo Ni Po,B6 A11 88,,,Bahamut
Wace,8,2620,E876330-5,0,,Lo Lt Ni,C9,,,
Wahesae,11,1729,E557545-7,0,,Ag Ni,66,,,Zefle
Wedjuqi,6,1113,E86A100-8,2,,Lo Ni Wa,911,,,
Wemovu,3,2207,D666685-6,1,,Ag Ga Ni Ri,98 64 83,,,
Wemuna,3,2102,D43178A-4,1,,Lt Na Po,89 48,checked,,
Wepa,10,1425,C5109CF-8,0,S,Hi In Na,16,,,Zefle
Whistler,6,1017,B883865-A,2,S T,Ri,610 911,,,Bahamut
Wikiegeda,9,0726,B322200-C,2,N R S T,Ht Lo Ni Po,910 82 58,,,Laue
Wiku,8,3116,E630259-6,2,,De Lo Ni Po,711 88 77,,,
Williams,8,3211,C510665-C,0,,Ht Na Ni,59 911,,,
Wuohumu,11,2328,D595401-5,0,S,Lt Ni,C11,,,
Wute,16,3034,C300432-9,1,T,Ni Va,712 65,,,
Xaneo,11,1825,D78769B-3,1,S,Ag Ga Lt Ni Ri,49 210,,,
Xeozhoplu,8,2615,D435100-7,1,S,Lo Ni,49 65,,,Elram
Xepofli,11,2127,E554578-5,2,,Ag Lt Ni,75 96 66,,,
Xigi,12,3221,D560662-7,2,,De Ni Ri,37 67 96,,,
Xijucro,12,2824,CA9A645-5,2,S,Lt Ni Wa,34,,,Selti
Xoawuva,8,2619,D120354-9,1,,De Lo Ni Po,99 49 55,,,
Xofraru,8,3117,D778668-3,1,S,Ag Lt Ni,87,,,
Xuhozuqo,8,2511,D5207CF-7,1,S,De Na Po,86 99 66,,,Bahamut
Xuku,7,2219,B44068A-B,1,S T,De Ni Po,56 66 55,,,
Xupu,8,2618,E49A9EF-9,2,,Hi In Wa,87,,,
Zadau,12,2725,C7869AA-9,2,S,Ga Hi,46,,,Selti
Zagia,6,0916,C9A6543-9,1,R,Fl Ni,88,,,
Zapa,3,1706,C759662-8,2,,Ni,B6 49 78,,,
Zefleo,10,1524,B030ACC-F,1,N S T,De Hi Ht Na Po,97 A3 66,,,Zefle
Zepo,5,0518,E79A99B-9,1,,Hi In Wa,54,,,
Zeseprava,1,0110,B5677BC-8,2,N S T,Ag,39,,,Imperium
Zhienatia,10,1025,E8A4668-8,0,,Fl Ni,A10 87 A9,,,Laue
Ziwe,7,2417,D510200-6,1,,Lo Ni,88 C7,checked,,
Zubairu,3,2101,A679665-F,1,N R T,Ht Ni,710 72 99,,,
Zucai,4,2905,B200537-B,3,N R T,Ni Va,35 62 85,,,Zucai
