<?xml version="1.0" encoding="UTF-8" standalone="no"?>
<!DOCTYPE svg PUBLIC "-//W3C//DTD SVG 1.1//EN" "http://www.w3.org/Graphics/SVG/1.1/DTD/svg11.dtd">
<svg width="100%" height="100%" viewBox="0 0 7 7" version="1.1" xmlns="http://www.w3.org/2000/svg" xmlns:xlink="http://www.w3.org/1999/xlink" xml:space="preserve" xmlns:serif="http://www.serif.com/" style="fill-rule:evenodd;clip-rule:evenodd;stroke-linecap:round;stroke-linejoin:round;stroke-miterlimit:1.5;">
    <use xlink:href="#_Image1" x="0" y="0" width="7px" height="7px"/>
    <defs>
        <image id="_Image1" width="7px" height="7px" xlink:href="data:image/png;base64,iVBORw0KGgoAAAANSUhEUgAAAAcAAAAHCAYAAADEUlfTAAAACXBIWXMAAA7EAAAOxAGVKw4bAAAAMElEQVQImbXOoREAIAzAwMDh6uvZfz50UCiKJPZNmjqBxV2gZgGo2Ss4fcIBxGMqNlkeDXsyHWzNAAAAAElFTkSuQmCC"/>
    </defs>
</svg>
